{
	"info": {
		"_postman_id": "68111bfc-8391-479b-953e-44c4ccf5a14d",
		"name": "CER",
		"schema": "https://schema.getpostman.com/json/collection/v2.1.0/collection.json"
	},
	"item": [
		{
			"name": "Scoring",
			"description": "",
			"item": [
				{
					"name": "Markets",
					"event": [
						{
							"listen": "test",
							"script": {
								"id": "efbb69bc-6bd3-45ca-8333-8513b2202250",
								"type": "text/javascript",
								"exec": [
									"const EXCHANGES = pm.variables.get('EXCHANGES');",
									"let responseJson = pm.response.json();",
									"let jsonScheme = pm.environment.get('jsonScheme');",
									"",
									"pm.test('JSON scheme is valid', function() {",
									"    pm.expect(tv4.validate(responseJson, jsonScheme)).to.be.true;",
									"});",
									"",
									"pm.test('JSON is a list of exchanges', function () {",
									"    console.log(EXCHANGES);",
									"    console.log(responseJson);",
									"    pm.expect(responseJson[0]).to.be.oneOf(EXCHANGES);",
									"});"
								]
							}
						},
						{
							"listen": "prerequest",
							"script": {
								"id": "204add46-ca0e-46a7-8c73-63e30fd1b518",
								"type": "text/javascript",
								"exec": [
									"let jsonScheme = {",
									"    \"type\": \"array\",",
									"    \"items\": {",
									"        \"type\": \"string\"",
									"    },",
									"    \"additionalItems\": false",
									"};",
									"pm.environment.set('jsonScheme', jsonScheme);"
								]
							}
						}
					],
					"request": {
						"method": "GET",
						"header": [],
						"body": {},
						"url": {
							"raw": "{{URL_markets_arbFilters}}/catalog/markets/",
							"host": [
								"{{URL_markets_arbFilters}}"
							],
							"path": [
								"catalog",
								"markets",
								""
							]
						}
					},
					"response": []
				}
			],
			"event": [
				{
					"listen": "prerequest",
					"script": {
						"id": "3ff90068-618f-4359-ac68-a35df8ee9b8d",
						"type": "text/javascript",
						"exec": [
							""
						]
					}
				},
				{
					"listen": "test",
					"script": {
						"id": "229c5b88-c649-4f5f-80bc-89c37535e5e9",
						"type": "text/javascript",
						"exec": [
							""
						]
					}
				}
			]
		},
		{
			"name": "Liquidity",
			"description": "",
			"item": [
				{
					"name": "Currency pairs and markets",
					"event": [
						{
							"listen": "test",
							"script": {
								"id": "bfc476f3-e5ef-4ad5-b7d6-b76b8a4c1482",
								"type": "text/javascript",
								"exec": [
									"const EXCHANGES = pm.variables.get('EXCHANGES');",
									"const CURRENCY_PAIRS = pm.variables.get('CURRENCY_PAIRS');",
									"let jsonScheme = pm.environment.get('jsonScheme');",
									"let responseJson = pm.response.json();",
									"",
									"pm.test('JSON schema is valid', function() {",
									"  pm.expect(tv4.validate(responseJson, jsonScheme)).to.be.true;",
									"});",
									"",
									"pm.test('JSON is a list of currency pairs with exchanges', function () {",
									"    // parse values from received JSON",
									"    let firstCurrencyPair = Object.keys(responseJson)[0];",
									"    let firstExchangesList = Object.values(responseJson)[0];",
									"    let firstExchange = firstExchangesList[0];",
									"    ",
									"    pm.expect(firstCurrencyPair).to.be.oneOf(CURRENCY_PAIRS);",
									"    pm.expect(firstExchange).to.be.oneOf(EXCHANGES);",
									"    ",
									"    // set variables for next tests",
									"    pm.environment.set('firstCurrencyPairFromCurrencyPairsAndMakketsResponse', firstCurrencyPair);",
									"    pm.environment.set('firstExchangeFromCurrencyPairsAndMakketsResponse', firstExchange);",
									"});",
									"    "
								]
							}
						},
						{
							"listen": "prerequest",
							"script": {
								"id": "14da3364-bf8c-49a5-a166-71b3adc025ea",
								"type": "text/javascript",
								"exec": [
									"let jsonScheme = {",
									"    \"type\": \"object\",",
									"    \"patternProperties\": {",
									"        \"[A-z]{3,4}\\/[A-z]{3,4}\": {",
									"            \"type\": \"array\",",
									"            \"items\": {",
									"                \"type\": \"string\"",
									"            },",
									"            \"additionalItems\": false",
									"        },",
									"    },",
									"    \"additionalProperties\": false",
									"};",
									"pm.environment.set('jsonScheme', jsonScheme);"
								]
							}
						}
					],
					"request": {
						"method": "GET",
						"header": [],
						"body": {},
						"url": {
							"raw": "{{URL_markets_arbFilters}}/catalog/currency_pairs_markets/",
							"host": [
								"{{URL_markets_arbFilters}}"
							],
							"path": [
								"catalog",
								"currency_pairs_markets",
								""
							]
						}
					},
					"response": []
				},
				{
					"name": "OHLCV",
					"event": [
						{
							"listen": "test",
							"script": {
								"id": "76ae1213-ebdd-406a-9e21-bef23ae8b836",
								"type": "text/javascript",
								"exec": [
									"const EXCHANGES = pm.variables.get('EXCHANGES');",
									"let responseJson = pm.response.json();",
									"let jsonScheme = pm.environment.get('jsonScheme');",
									"",
									"pm.test('JSON scheme is valid', function() {",
									"    pm.expect(tv4.validate(responseJson, jsonScheme)).to.be.true;",
									"    pm.environment.unset('jsonScheme');",
									"});",
									"",
									"pm.test('JSON has valid data', function() {",
									"    pm.expect(responseJson[0].market).to.be.oneOf(EXCHANGES);",
									"    pm.expect(typeof((responseJson[0].currencyPair.left))).to.equal('string');",
									"});"
								]
							}
						},
						{
							"listen": "prerequest",
							"script": {
								"id": "4da7c398-9e0f-46d8-a723-8bded1b76bf0",
								"type": "text/javascript",
								"exec": [
									"const jsonScheme = {",
									"    \"type\": \"array\",",
									"    \"items\": {",
									"        \"type\": \"object\",",
									"        \"properties\": {",
									"            \"time\": {",
									"                \"type\": \"integer\"",
									"            },",
									"            \"market\": {",
									"                \"type\": \"string\"",
									"            },",
									"            \"currencyPair\": {",
									"                \"type\": \"object\",",
									"                \"properties\": {",
									"                    \"left\": {",
									"                        \"type\": \"string\"",
									"                    },",
									"                    \"right\": {",
									"                        \"type\": \"string\"",
									"                    }",
									"                },",
									"                \"additionalProperties\": false,",
									"                \"required\": [",
									"                    \"left\",",
									"                    \"right\"",
									"                ]",
									"            },",
									"            \"lastUpdateTime\": {",
									"                \"type\": [",
									"                    \"null\",",
									"                    \"integer\"",
									"                ]",
									"            },",
									"            \"resolution\": {",
									"                \"type\": [",
									"                    \"null\",",
									"                    \"integer\"",
									"                ]",
									"            },",
									"            \"open\": {",
									"                \"type\": [",
									"                    \"null\",",
									"                    \"number\"",
									"                ]",
									"            },",
									"            \"close\": {",
									"                \"type\": [",
									"                    \"null\",",
									"                    \"number\"",
									"                ]",
									"            },",
									"            \"high\": {",
									"                \"type\": [",
									"                    \"null\",",
									"                    \"number\"",
									"                ]",
									"            },",
									"            \"low\": {",
									"                \"type\": [",
									"                    \"null\",",
									"                    \"number\"",
									"                ]",
									"            },",
									"            \"volume\": {",
									"                \"type\": [",
									"                    \"null\",",
									"                    \"number\"",
									"                ]",
									"            },",
									"            \"count\": {",
									"                \"type\": [",
									"                    \"null\",",
									"                    \"integer\"",
									"                ]",
									"            }",
									"        },",
									"        \"additionalProperties\": false,",
									"        \"required\": [",
									"            \"time\",",
									"            \"market\",",
									"            \"currencyPair\",",
									"            \"lastUpdateTime\",",
									"            \"resolution\",",
									"            \"open\",",
									"            \"close\",",
									"            \"high\",",
									"            \"low\",",
									"            \"volume\",",
									"            \"count\"",
									"        ]",
									"    },",
									"    \"additionalItems\": false",
									"};",
									"",
									"pm.environment.set('jsonScheme', jsonScheme);",
									"",
									"(function generateCurPairExForRequestURL() {",
									"    let currencyPair = pm.environment.get('firstCurrencyPairFromCurrencyPairsAndMakketsResponse');",
									"    let exchange = pm.environment.get('firstExchangeFromCurrencyPairsAndMakketsResponse');",
									"    let currenciesArray = currencyPair.split('/');",
									"    let curPair_Ex =  (currenciesArray[0] + '_' + currenciesArray[1] + '_' + exchange);",
									"    pm.environment.set('curPair_Ex', curPair_Ex);",
									"})();",
									"// generateCurPairExForRequestURL();",
									""
								]
							}
						}
					],
					"request": {
						"method": "GET",
						"header": [],
						"body": {},
						"url": {
							"raw": "{{URL_ohlcv_trading}}/ohlcv/{{curPair_Ex}}",
							"host": [
								"{{URL_ohlcv_trading}}"
							],
							"path": [
								"ohlcv",
								"{{curPair_Ex}}"
							]
						}
					},
					"response": []
				}
			]
		},
		{
			"name": "Blockchain Balance",
			"description": "",
			"item": [
				{
					"name": "FD - Flow Dynamics",
					"event": [
						{
							"listen": "test",
							"script": {
								"id": "02c8b2a0-d244-4055-ac4b-4868c1435cce",
								"type": "text/javascript",
								"exec": [
									"const EXCHANGES = pm.variables.get('EXCHANGES');",
									"let responseJson = pm.response.json();",
									"let jsonScheme = pm.environment.get('jsonScheme');",
									"",
									"pm.test('JSON scheme is valid', function() {",
									"    pm.expect(tv4.validate(responseJson, jsonScheme)).to.be.true;",
									"    pm.environment.unset('jsonScheme');",
									"});",
									"",
									"pm.test('JSON has valid data', function() {",
									"    pm.expect(responseJson[0].market).to.be.oneOf(EXCHANGES);",
									"    pm.expect(responseJson[0].currency).to.equal('BTC');",
									"});"
								]
							}
						},
						{
							"listen": "prerequest",
							"script": {
								"id": "9fd43d0b-98fc-4ca5-ace4-2de3a644cef8",
								"type": "text/javascript",
								"exec": [
									"const jsonScheme = {",
									"    \"type\": \"array\",",
									"    \"items\": {",
									"        \"type\": \"object\",",
									"        \"properties\": {",
									"            \"time\": {",
									"                \"type\": \"integer\"",
									"            },",
									"            \"lastUpdateTime\": {",
									"                \"type\": [\"integer\", \"null\"]",
									"            },",
									"            \"market\": {",
									"                \"type\": \"string\"",
									"            },",
									"            \"currency\": {",
									"                \"type\": \"string\"",
									"            },",
									"            \"resolution\": {",
									"                \"type\": [\"integer\", \"null\"]",
									"            },",
									"            \"inflow\": {",
									"                \"type\": [\"number\", \"null\"]",
									"            },",
									"            \"outflow\": {",
									"                \"type\": [\"number\", \"null\"]",
									"            }",
									"        },",
									"        \"additionalProperties\": false,",
									"        \"required\": [",
									"            \"time\",",
									"            \"lastUpdateTime\",",
									"            \"market\",",
									"            \"currency\",",
									"            \"resolution\",",
									"            \"inflow\",",
									"            \"outflow\"",
									"        ]",
									"    },",
									"    \"additionalItems\": false",
									"};",
									"",
									"pm.environment.set('jsonScheme', jsonScheme);",
									""
								]
							}
						}
					],
					"request": {
						"method": "GET",
						"header": [],
						"body": {},
						"url": {
							"raw": "{{URL_ohlcv_trading}}/fd/{{firstExchangeFromCurrencyPairsAndMakketsResponse}}_BTC",
							"host": [
								"{{URL_ohlcv_trading}}"
							],
							"path": [
								"fd",
								"{{firstExchangeFromCurrencyPairsAndMakketsResponse}}_BTC"
							]
						}
					},
					"response": []
				}
			]
		},
		{
			"name": "Arbitrage",
			"description": "",
			"item": [
				{
					"name": "Arbitrage filters",
					"event": [
						{
							"listen": "prerequest",
							"script": {
								"id": "2d31070f-3206-4b32-bc35-dd2486351ebc",
								"type": "text/javascript",
								"exec": [
									"let jsonScheme = {",
									"    \"type\": \"object\",",
									"    \"additionalProperties\": true,",
									"    \"properties\": {",
									"        \"BTC/USD\": {",
									"            \"type\": \"array\",",
									"            \"additionalItems\": false,",
									"            \"items\": {",
									"                \"type\": \"object\",",
									"                \"additionalProperties\": false,",
									"                \"properties\": {",
									"                    \"left\": {",
									"                        \"type\": \"string\"",
									"                    },",
									"                    \"right\": {",
									"                        \"type\": \"string\"",
									"                    }",
									"                },",
									"                \"required\": [",
									"                    \"left\",",
									"                    \"right\"",
									"                ]",
									"            }",
									"        }",
									"    }",
									"};",
									"",
									"pm.environment.set('jsonScheme', jsonScheme);"
								]
							}
						},
						{
							"listen": "test",
							"script": {
								"id": "b4951247-bf93-4ec1-a0a2-f523141b4889",
								"type": "text/javascript",
								"exec": [
									"let responseJson = pm.response.json();",
									"let jsonScheme = pm.environment.get('jsonScheme');",
									"const CURRENCY_PAIRS = pm.variables.get('CURRENCY_PAIRS');",
									"const EXCHANGES = pm.variables.get('EXCHANGES');",
									"",
									"pm.test('JSON scheme is valid', function() {",
									"    pm.expect(tv4.validate(responseJson, jsonScheme)).to.be.true;",
									"    pm.environment.unset('jsonScheme');",
									"});",
									"",
									"pm.test('JSON has valid data', function() {",
									"    let firstJsonKey = Object.keys(responseJson)[0];",
									"    pm.expect(firstJsonKey).to.be.oneOf(CURRENCY_PAIRS);",
									"    pm.expect(responseJson[firstJsonKey][0].left).to.be.oneOf(EXCHANGES);",
									"});"
								]
							}
						}
					],
					"request": {
						"method": "GET",
						"header": [],
						"body": {},
						"url": {
							"raw": "{{URL_markets_arbFilters}}/catalog/arbitrage_filters/",
							"host": [
								"{{URL_markets_arbFilters}}"
							],
							"path": [
								"catalog",
								"arbitrage_filters",
								""
							]
						}
					},
					"response": []
				}
			]
		},
		{
			"name": "Trading",
			"description": "",
			"item": [
				{
					"name": "Currency pair prices for particular exchange",
					"event": [
						{
							"listen": "test",
							"script": {
								"id": "302c38ac-8a97-4811-a790-fe6bf1e0429a",
								"type": "text/javascript",
								"exec": [
									"const CURRENCY_PAIRS = pm.variables.get('CURRENCY_PAIRS');",
									"const EXCHANGES = pm.variables.get('EXCHANGES');",
									"let jsonScheme = pm.environment.get('jsonScheme');",
									"",
									"let responseJson = pm.response.json();",
									"",
									"pm.test('JSON scheme is valid', function() {",
									"    pm.expect(tv4.validate(responseJson, jsonScheme)).to.be.true;",
									"    pm.environment.unset('jsonScheme');",
									"});",
									"",
									"pm.test('JSON has valid data', function() {",
									"    pm.expect(responseJson.ohlcvSummaries[0].market).to.be.oneOf(EXCHANGES);",
									"});",
									""
								]
							}
						},
						{
							"listen": "prerequest",
							"script": {
								"id": "cf18b400-4773-40cb-86b5-545f0ccb8ff4",
								"type": "text/javascript",
								"exec": [
									"let jsonScheme = {",
									"    \"type\": \"object\",",
									"    \"properties\": {",
									"        \"previousRecord\": {",
									"            \"type\": \"object\",",
									"            \"properties\": {",
									"                \"time\": {",
									"                    \"type\": \"integer\"",
									"                },",
									"                \"market\": {",
									"                    \"type\": \"string\"",
									"                },",
									"                \"currencyPair\": {",
									"                    \"type\": \"object\",",
									"                    \"properties\": {",
									"                        \"left\": {",
									"                            \"type\": \"string\"",
									"                        },",
									"                        \"right\": {",
									"                            \"type\": \"string\"",
									"                        }",
									"                    },",
									"                    \"additionalProperties\": false,",
									"                    \"required\": [",
									"                        \"left\",",
									"                        \"right\"",
									"                    ]",
									"                },",
									"                \"lastUpdateTime\": {",
									"                    \"type\": \"integer\"",
									"                },",
									"                \"resolution\": {",
									"                    \"type\": \"integer\"",
									"                },",
									"                \"open\": {",
									"                    \"type\": \"number\"",
									"                },",
									"                \"close\": {",
									"                    \"type\": \"number\"",
									"                },",
									"                \"high\": {",
									"                    \"type\": \"number\"",
									"                },",
									"                \"low\": {",
									"                    \"type\": \"number\"",
									"                },",
									"                \"volume\": {",
									"                    \"type\": \"number\"",
									"                },",
									"                \"count\": {",
									"                    \"type\": \"integer\"",
									"                }",
									"            },",
									"            \"additionalProperties\": false,",
									"            \"required\": [",
									"                \"time\",",
									"                \"market\",",
									"                \"currencyPair\",",
									"                \"lastUpdateTime\",",
									"                \"resolution\",",
									"                \"open\",",
									"                \"close\",",
									"                \"high\",",
									"                \"low\",",
									"                \"volume\",",
									"                \"count\"",
									"            ]",
									"        },",
									"        \"ohlcvSummaries\": {",
									"            \"type\": \"array\",",
									"            \"items\": {",
									"                \"type\": \"object\",",
									"                \"properties\": {",
									"                    \"time\": {",
									"                        \"type\": \"integer\"",
									"                    },",
									"                    \"market\": {",
									"                        \"type\": \"string\"",
									"                    },",
									"                    \"currencyPair\": {",
									"                        \"type\": \"object\",",
									"                        \"properties\": {",
									"                            \"left\": {",
									"                                \"type\": \"string\"",
									"                            },",
									"                            \"right\": {",
									"                                \"type\": \"string\"",
									"                            }",
									"                        },",
									"                        \"additionalProperties\": false,",
									"                        \"required\": [",
									"                            \"left\",",
									"                            \"right\"",
									"                        ]",
									"                    },",
									"                    \"lastUpdateTime\": {",
									"                        \"type\": \"integer\"",
									"                    },",
									"                    \"resolution\": {",
									"                        \"type\": \"integer\"",
									"                    },",
									"                    \"open\": {",
									"                        \"type\": [",
									"                            \"number\",",
									"                            \"integer\"",
									"                        ]",
									"                    },",
									"                    \"close\": {",
									"                        \"type\": [",
									"                            \"number\",",
									"                            \"integer\"",
									"                        ]",
									"                    },",
									"                    \"high\": {",
									"                        \"type\": [",
									"                            \"number\",",
									"                            \"integer\"",
									"                        ]",
									"                    },",
									"                    \"low\": {",
									"                        \"type\": [",
									"                            \"number\",",
									"                            \"integer\"",
									"                        ]",
									"                    },",
									"                    \"volume\": {",
									"                        \"type\": [",
									"                            \"number\",",
									"                            \"integer\"",
									"                        ]",
									"                    },",
									"                    \"count\": {",
									"                        \"type\": \"integer\"",
									"                    }",
									"                },",
									"                \"additionalProperties\": false,",
									"                \"required\": [",
									"                    \"time\",",
									"                    \"market\",",
									"                    \"currencyPair\",",
									"                    \"lastUpdateTime\",",
									"                    \"resolution\",",
									"                    \"open\",",
									"                    \"close\",",
									"                    \"high\",",
									"                    \"low\",",
									"                    \"volume\",",
									"                    \"count\"",
									"                ]",
									"            },",
									"            \"additionalItems\": false",
									"        }",
									"    },",
									"    \"additionalProperties\": false,",
									"    \"required\": [",
									"        \"previousRecord\",",
									"        \"ohlcvSummaries\"",
									"    ]",
									"};",
									"",
									"pm.environment.set('jsonScheme', jsonScheme);",
									"",
									"(function generateCurPairExForRequestURL() {",
									"    let currencyPair = pm.environment.get('firstCurrencyPairFromCurrencyPairsAndMakketsResponse');",
									"    let exchange = pm.environment.get('firstExchangeFromCurrencyPairsAndMakketsResponse');",
									"    let currenciesArray = currencyPair.split('/');",
									"    let curPair_Ex =  (currenciesArray[0] + '_' + currenciesArray[1] + '_' + exchange);",
									"    pm.environment.set('curPair_Ex', curPair_Ex);",
									"})();",
									"",
									"let date = new Date();",
									"let currentTimestamp = date.getTime();",
									"let monthAgoTimestamp = currentTimestamp - 2592000000;",
									"pm.environment.set('currentTimestamp', currentTimestamp);",
									"pm.environment.set('monthAgoTimestamp', monthAgoTimestamp);",
									"",
									"let timePeriods = {",
									"    'mins-30': 1800000,",
									"    'hour-1': 3600000,",
									"    'hours-2': 7200000,",
									"    'hours-3': 10800000,",
									"    'hours-4': 14400000",
									"};",
									"pm.environment.set('mins-30', timePeriods['mins-30']);",
									"pm.environment.set('hour-1', timePeriods['hour-1']);",
									"pm.environment.set('hours-20', timePeriods['hours-2']);",
									"pm.environment.set('hours-3', timePeriods['hours-3']);",
									"pm.environment.set('hours-4', timePeriods['hours-4']);",
									""
								]
							}
						}
					],
					"request": {
						"method": "GET",
						"header": [],
						"body": {},
						"url": {
							"raw": "{{URL_ohlcv_trading}}/trading/ohlcv/{{curPair_Ex}}?fromTime={{monthAgoTimestamp}}&toTime={{currentTimestamp}}&resolution={{mins-30}}",
							"host": [
								"{{URL_ohlcv_trading}}"
							],
							"path": [
								"trading",
								"ohlcv",
								"{{curPair_Ex}}"
							],
							"query": [
								{
									"key": "fromTime",
									"value": "{{monthAgoTimestamp}}"
								},
								{
									"key": "toTime",
									"value": "{{currentTimestamp}}"
								},
								{
									"key": "resolution",
									"value": "{{mins-30}}"
								}
							]
						}
					},
					"response": []
				}
			],
			"event": [
				{
					"listen": "prerequest",
					"script": {
						"id": "15b3ce58-d37d-492f-a27c-d727b8968070",
						"type": "text/javascript",
						"exec": [
							"let date = new Date();",
							"let currentTimestamp = date.getTime();",
							"let monthAgoTimestamp = currentTimestamp - 2592000000;",
							"pm.environment.set('currentTimestamp', currentTimestamp);",
							"pm.environment.set('monthAgoTimestamp', monthAgoTimestamp);"
						]
					}
				},
				{
					"listen": "test",
					"script": {
						"id": "81f4c0b8-8ebc-46c3-a5ed-850e83661995",
						"type": "text/javascript",
						"exec": [
							""
						]
					}
				}
			]
		}
	],
	"event": [
		{
			"listen": "prerequest",
			"script": {
				"id": "1e35bfd9-92b9-46d5-9edd-67e8acfd62cf",
				"type": "text/javascript",
				"exec": [
					"pm.globals.set('EXCHANGES', [\"OKEX\", \"BITFINEX\", \"BINANCE\", \"KRAKEN\", \"HUOBIPRO\", \"BITSTAMP\", \"BITTREX\", \"HITBTC\", \"POLONIEX\", \"GEMINI\", \"COINBASE\", \"BITHUMB\", \"COINONE\", \"EXMO\", \"KORBIT\", \"BITMEX\", \"KUCOIN\", \"CEXIO\"]);",
					"",
					"pm.globals.set('CURRENCY_PAIRS', [\"BCH/USD\", \"ETH/KRW\", \"EOS/USDT\", \"BTC/KRW\", \"LTC/KRW\", \"BTC/JPY\", \"EOS/BTC\", \"ETH/JPY\", \"LTC/ETH\", \"ETH/USDT\", \"XRP/JPY\", \"BCH/KRW\", \"EOS/ETH\", \"ETH/LTC\", \"XRP/KRW\", \"ETC/KRW\", \"ETC/USD\", \"ETH/USD\", \"XRP/USD\", \"LTC/USD\", \"ETC/USDT\", \"BTC/USDT\", \"ETH/BTC\", \"LTC/BTC\", \"USDT/USD\", \"EOS/KRW\", \"XRP/USDT\", \"BTC/USD\", \"BCH/BTC\", \"ETC/ETH\", \"LTC/USDT\", \"XRP/BTC\", \"LTC/EUR\", \"BCH/USDT\", \"BTC/EUR\", \"ETC/BTC\", \"ETH/EUR\"]);"
				]
			}
		},
		{
			"listen": "test",
			"script": {
				"id": "9c372c2e-fb69-4d30-96cd-e2b823004117",
				"type": "text/javascript",
				"exec": [
					"// console.log(request.url);",
					"",
					"pm.test('Response code is 200', function () {",
					"    pm.response.to.be.ok;",
					"});",
					"",
					"pm.test('Response is JSON', function () {",
					"     pm.response.to.be.json;",
					"});",
					"",
					"pm.test('Body is not \"[]\"', function () {",
					"    pm.response.to.not.have.body('[]');",
					"});"
				]
			}
		}
	]
}